## Interface: 20000
## Title: BasketToolsDKP
## Description: DKP Information
## Notes: DKP Information
## Version: 0.5.4
## Dependencies: BasketTools
## SavedVariables: BasketToolsDKPCharactersFive, BasketToolsDKPClasses, BasketToolsDKPUpdated
BasketToolsDKP.xml