## Interface: 20000
## Title: BasketTools
## Description: BasketTools
## Notes: DKP Information
## Version: 0.5.4
## SavedVariables: BasketToolsDKPAssociationsFive, BasketToolsDKPSettings, BasketToolsSettings
BasketTools.xml